"id","destroyed_on","method_of_destruction","address_of_destruction","offsite_destruction","created_at","updated_at","name","weight_destroyed","witness1_id","witness2_id","accompanying_person_id"
1,,,,FALSE,2016-09-22 06:53:02,2016-09-22 06:53:02,"#1",,,,
2,,,,FALSE,2016-11-02 16:05:01,2016-11-02 16:05:01,"#2",,,,
3,,,,FALSE,2016-12-07 20:51:14,2016-12-13 18:52:44,"Dec 7th-Dec31,2016",,,,
4,,,,FALSE,2017-01-02 20:17:44,2017-01-02 20:18:02,"Jan 1 - Jan 31, 2017",,,,
5,,,,FALSE,2017-02-03 17:09:33,2017-02-03 17:09:56,"Feb 1-28, 2017",,,,
6,,,,FALSE,2017-03-03 14:41:00,2017-03-03 14:41:16,"March 1 - March 31",,,,
7,,,,FALSE,2017-04-02 12:25:07,2017-04-02 12:25:28,"April 1st - April 30, 2017",,,,
8,,,,FALSE,2017-05-16 17:43:01,2017-05-16 17:43:27,"May 16-May 31, 2017",,,,
9,,,,FALSE,2017-06-02 13:47:30,2017-06-02 13:47:44,"June 1 - June 30, 2017",,,,
10,,,,FALSE,2017-07-03 17:06:56,2017-07-03 17:07:11,"July 1st - July 31st, 2017",,,,
11,,,,FALSE,2017-08-10 13:58:16,2017-08-10 13:58:39,"Aug 10 - Aug 31, 2017",,,,
12,,,,FALSE,2017-09-01 12:40:15,2017-09-01 12:40:32,"Sept 1 - Sept 30, 2017",,,,
13,,,,FALSE,2017-10-05 17:41:01,2017-11-06 20:04:35,"Oct 1-Nov 6, 2017",,,,
14,,,,FALSE,2017-11-06 20:04:41,2017-11-06 20:05:00,"Nov 7- Nov 30, 2017",,,,
15,,,,FALSE,2017-12-02 20:17:37,2017-12-02 20:17:50,"Dec 1 - Dec 31, 2017",,,,
16,,,,FALSE,2018-01-10 17:04:35,2018-01-10 17:04:48,"Jan - 2018",,,,
17,,,,FALSE,2018-02-01 20:33:32,2018-02-01 20:33:42,"Feb, 2018",,,,
18,,,,FALSE,2018-03-02 15:40:37,2018-03-06 20:27:24,"March, 2018",,,,
