id,name,file,description,archived,available,featured,product_type_id,created_at,updated_at,label_image,strain_type_id,meta_attributes,migrated_id,common_name,price_per_gram,
48,G-Pen Elite,G-Pen_Elite.jpg,Ergonomic design featuring an LED temperature control and battery life indicator.,f,f,f,3,46:01.5,21:56.6,,,,,,,
121,Harmony,Harmony.jpg,,f,f,f,9,14:06.8,30:05.4,16675_Organigram_Dried_Cannabis_Label_Indica_FA-01.jpg,34,,,,,
125,CRITICAL KUSHMASS,Critical_Kushmass_15g.jpg,,f,t,f,9,34:12.6,32:39.5,16675_Organigram_Dried_Cannabis_Label_CBD_FA-01.jpg,36,,,Premium Blend,5,
52,RECIPE BOOK,,,f,f,f,5,46:01.5,25:36.2,,,,,,,
50,ALUMINUM GRINDER,Aluminum_grinder2.jpg,Our 3 piece signature grinder made from anodized aluminum will provide years of use when properly maintained.,f,t,f,4,46:01.5,29:01.9,Aluminum_grinder.jpg,,,,,,
37,AVALON,,,f,t,f,1,46:01.4,53:57.4,,,,,,,
47,ARIZER EXTREME Q,arizer-extreme-q-remote.jpg,A desktop vaporizer that uses whips or balloons. ,f,t,f,3,46:01.5,36:05.5,,,,,,,
3,Rising Tides (Old),,,t,t,f,1,46:01.2,16:03.1,,33,,,,,
56,Volcano Vaporizer,,,t,f,f,3,06:44.2,19:49.5,,,,,,,
46,Arizer Air,arizer-air-silver.jpg,Sleek and compact, the Arizer Air is 122mm in height and 29mm in diameter. ,t,f,f,3,46:01.5,01:50.5,,,,,,
36,Bayfield,,,t,t,f,1,46:01.4,02:39.3,,,,,,,
123,EDISON #7,Edison__7_no_background.jpg,,f,t,f,10,32:31.0,58:57.6,EdisonLabel_DRY1005V1.jpg,33,,,Acadia +,15,
31,Ice,,,t,t,f,1,46:01.4,07:58.3,,,,,,,
24,UNION JACK,Union_Jack.jpg,While clients have indicated that this strain has helped with insomnia and stress, it has also been found to be helpful with pain. Most clients would agree it allows them to relax. ,f,t,f,1,46:01.3,31:32.4,16675_Organigram_Dried_Cannabis_Label_Indica_FA-01.jpg,34,,,,10
54,TRAVEL KIT,,,f,t,f,7,46:01.5,30:01.5,,,,,,,
40,VOYAGE,Voyage_Bottle_Shot.jpg,Voyage (Jean Guy),,,,,,,,,,,,,
Clients say this is an energizing product, that doesn’t slow them down. Some clients with fibromyalgia and cancer find this to be a good option. The high THC means that clients with anxiety should be cautious.,,,,,,,,,,,,,,,
*Non Organic*,f,t,f,1,46:01.4,34:24.4,16675_Organigram_Dried_Cannabis_Label_Sativa_FA-01.jpg,33,,,Jean Guy,11,,,,
122,EDISON #3,Edison__3_no_background.jpg,,f,t,f,10,32:16.0,58:15.1,EdisonLabel_DRY1005V1.jpg,34,,,Hash Plant +,15,
124,BLUE MOON,Blue_Moon_15g.jpg,,f,t,f,9,03:56.9,55:19.4,16675_Organigram_Dried_Cannabis_Label_CBD_FA-01.jpg,36,,,,7,
42,Bras d'Or,Bras_d_Or_bottle_shot.jpg,Our hybrid oil has been specially formulated to provide a balance of uplifting and physically relaxing effects.  Each bottle of OrganiOil is the equivalent of 10g towards your monthly prescription limit.,f,t,f,2,46:01.4,34:52.4,,35,,,,,
60,Torngat,Torngat_Bottle_Shot.jpg,Many clients have said that this strain has helped with pain management, while leaving them feeling energetic and creative. Some clients have used this for PTSD and found it helpful.,t,t,f,1,33:39.5,18:31.7,,33,,,,
8,Beaverbrook,,,t,t,f,1,46:01.2,03:00.2,,,,,,,
2,Bluenose,,,t,t,f,1,46:01.2,03:43.2,,,,,,,
20,OGI Blend,,,t,t,f,1,46:01.3,11:23.9,,,,,,,
35,Cabot,,,t,t,f,1,46:01.4,04:22.2,,,,,,,
29,Citadel,,,t,t,f,1,46:01.3,05:51.7,,,,,,,
11,Elephant Rock,,,t,t,f,1,46:01.2,07:23.2,,,,,,,
26,Hopewell,,,t,t,f,1,46:01.3,07:43.7,,,,,,,
38,Island Bloom,,,t,t,f,1,46:01.4,08:22.0,,,,,,,
9,King's Landing,,,t,t,f,1,46:01.2,08:44.0,,,,,,,
34,Lunenburg,,,t,t,f,1,46:01.4,09:07.9,,,,,,,
25,Mahone,,,t,t,f,1,46:01.3,09:20.6,,,,,,,
63,Marble Blend,,,t,t,f,1,34:19.8,09:29.8,,,,,,,
64,Martock Blend,,,t,t,f,1,34:30.9,09:42.2,,,,,,,
27,Mayflower,,,t,t,f,1,46:01.3,09:55.2,,,,,,,
59,Musgrave,Musgrave_Bottle_Shot_CAPS.jpg,Clients have indicated that this strain has a calming effect. Feedback from clients is that it is very effective for pain, but makes you sleepy and therefore is best for evening use. *Mongolian*,t,t,f,1,33:25.1,10:12.3,,34,,,,
16,Nor'easter,,,t,t,f,1,46:01.3,10:29.4,,,,,,,
18,Ocean Breeze,,,t,t,f,1,46:01.3,10:56.5,,,,,,,
4,OGI AK47,,,t,t,f,1,46:01.2,11:09.8,,,,,,,
21,OGI CBD Critical Mass,,,t,t,f,1,46:01.3,11:35.2,,,,,,,
10,OGI Coma,,,t,t,f,1,46:01.2,11:49.0,,,,,,,
13,OGI Kush,,,t,t,f,1,46:01.2,12:28.3,,,,,,,
23,OGI Nepali Diesel,,,t,t,f,1,46:01.3,12:41.2,,,,,,,
15,OGI Sweet Leaf Blend,,,t,t,f,1,46:01.3,12:52.4,,,,,,,
30,OGI Tropical Blend,,,t,t,f,1,46:01.4,13:04.1,,,,,,,
19,Peggy's Cove,,,t,t,f,1,46:01.3,13:15.3,,,,,,,
17,Point Pleasant CBD,,,t,t,f,1,46:01.3,14:09.1,,,,,,,
53,Puffer,,,t,t,f,6,46:01.5,14:20.2,,,,,,,
22,Pier 21,,,t,t,f,1,46:01.3,13:50.5,,,,,,,
6,Rising Tides,Rising_Tides_10g_Bottle.jpg,Rising Tides (Pineapple Express),,,,,,,,,,,,,
Many clients have indicated that this strain is uplifting, and makes them feel focused and creative. Some clients suffering from depression or stress have found this helpful. However, clients with anxiety should be cautious.,t,f,t,1,46:01.2,15:45.4,,33,,,Pineapple Express,,,
28,Shediac Bay,,,t,t,f,1,46:01.3,16:30.4,,,,,,,
39,Skyline,,,t,t,f,1,46:01.4,16:43.9,,,,,,,
32,Spring Garden,,,t,t,f,1,46:01.4,17:05.5,,,,,,,
33,Super Lemon Haze,,,t,t,f,1,46:01.4,18:01.6,,,,,,,
55,Utopia (duplicate),Utopia_Bottle_Shot.jpg,Clients who are managing pain often opt for Utopia considering it’s higher levels of CBD. They have shown positive results treating conditions like arthritis and chronic pain. ,t,f,f,2,31:24.4,19:33.7,,,,,,,
87,PAX 3,PAX_3.jpg,Intelligent, intuitive and instant. The Pax 3 is a dual-use portable vaporizer that delivers a strong, pure vapor for loose leaf and extract (extract insert included). With a more efficient heater it takes only 15 seconds to heat up. An upgraded battery powers the oven 2X as fast as the PAX 2. Additional Pax 3 upgrades include medical grade materials in the air path; LED and haptic feedback notify you that the Pax 3 is ready. Includes 10-year warranty.,f,t,f,3,52:40.8,42:53.8,,,,,
144,CRAFTY,Crafty.jpg,,f,t,f,3,33:46.8,19:03.6,,,,,,,
141,DAVINCI IQ,DAvinci_IQ.jpg,,f,t,f,3,45:57.2,30:43.5,,,,,,,
142,LEVO OIL INFUSER,Levo.jpg,,f,t,f,8,56:44.6,32:37.4,,,,,,,
67,HIGH TIDE,High_Tide_15g.jpg,High tide is an awe-inspiring sight along the Bay of Fundy. Home to the highest tides in the world, the bay fills up twice daily with a massive rush of water from the Atlantic Ocean. At its peak, the difference between high and low tide along the bay is a volume of water taller than a three-story building. It’s at high tide that the full power of the ocean really becomes apparent. ,,,,,,,,,,,
,,,,,,,,,,,,,,,,
High Tide is an uplifting, powerful blend of our most popular sativa strains. Alone, each flower is regarded for its energizing, clarifying properties, making the blend a go-to for patients battling fatigue, depression and pain. ,,,,,,,,,,,
,,,,,,,,,,,,,,,,
Packaged pre-milled to the ideal consistency for even vaporization, Organigram Premium Blends are a convenient, budget-friendly option. Available exclusively in 15-gram bottles.  ,,,,,,,,,,,,,,
,f,t,f,9,15:48.4,22:42.0,16675_Organigram_Dried_Cannabis_Label_Sativa_FA-01.jpg,33,,,Premium Blend,7,,,,
57,Carleton,Carleton_Bottle_Shots.jpg,Most clients find this strain to be effective for pain relief. Some clients have used this strain for PTSD as well as pain management. Most clients indicate that this strain allows them to be alert, and use it during daytime due to its lower THC level. Some have also found it helpful with pain and inflammation due to the higher CBD levels. *CBD Critical Mass*,t,t,f,1,32:55.5,04:43.3,,34,,,,
5,TIDAL BORE,Tidal_Bore_Bottle_Shot.jpg,Tidal Bore (R2),,,,,,,,,,,,,
Many clients have said that this strain has helped with pain management, while leaving them feeling energetic and creative. Some clients have used this for PTSD and found it helpful.,f,t,f,1,46:01.2,03:50.8,16675_Organigram_Dried_Cannabis_Label_Sativa_FA-01.jpg,33,,,R2,10,,,
58,Dalhousie,Dalhousie.jpg,Many clients have indicated that this strain is uplifting, and makes them feel focused and creative. Some clients suffering from depression or stress have found this helpful. However, clients with anxiety should be cautious. *Pineapple Express*,t,t,f,1,33:15.7,06:16.7,,33,,,
85,KEJI,Keji.jpg,,f,t,f,1,18:38.5,07:13.1,16675_Organigram_Dried_Cannabis_Label_Hybrid_FA-01.jpg,35,,,Armageddon,8,
1,LIGHTHOUSE,Lighthouse__Bud.jpg,Along oceanic shores, lighthouses are a refuge; a safe point on rough waters and rugged coastline. Just like the structure for which it’s named, Lighthouse is a beacon. A stand-out patient favourite, Lighthouse is Organigram’s most popular all-time strain. ,,,,,,,,,,
,,,,,,,,,,,,,,,,
A bold indica-dominant flower, Lighthouse is heralded by patients as a light in the dark, offering sedating, calming, euphoric properties, best enjoyed after the sun goes down. With an earthy aroma and tightly woven bud structure, this myrcene-rich strain is reputed as an ideal tool to combat pain, inflammation, insomnia, anxiety and depression. ,,,,,,,
,f,t,f,1,46:01.2,08:28.8,16675_Organigram_Dried_Cannabis_Label_Indica_FA-01.jpg,34,,,Mongolian,9,,,,
71,EVAK STORAGE CONTAINER,Evak_Jar.jpg,The Evak Storage container has an innovative lid that allows you to remove all the unwanted air from the jar. This will help keep your medicine fresh and preserve cannabinoids and terpenes.  The Jar has a capacity of 24 fluid ounces or 709ml and comes in frosted or clear glass.,f,t,f,8,54:36.6,12:42.8,,,,,,,
74,EVAK MINI,Evak_Mini.jpg,The Evak Storage container has an innovative lid that allows you to remove all the unwanted air from the jar. This will help keep your medicine fresh and preserve cannabinoids and terpenes.  The Jar has a capacity of 6 fluid ounces or 177ml and comes in frosted or clear glass.,f,t,f,8,24:57.1,13:01.0,,,,,,,
65,THE VOLCANO,Volcano.jpg,When it comes to desktop vaporizers none have surpassed the Volcano in terms of craftsmanship and quality. This vaporizer provides very accurate temperature control. The unit also comes with an easy valve starter pack which contains 5 inflatable bags ($120 value).,f,t,f,3,09:24.0,37:25.1,,,,,,,
81,Downstreet,Downstreet.jpg,,t,f,f,1,04:56.0,07:02.0,,34,,,White Rhino,,
84,OXFORD,Oxford.jpg,Oxford (Blueberry Kush),,,,,,,,,,,,,
This heavy indica strain is reported to slowly provide a sensation of full body relaxation. Many clients have found this strain useful for managing stress and pain.,f,t,f,1,15:30.0,22:12.3,16675_Organigram_Dried_Cannabis_Label_Indica_FA-01.jpg,34,,,Blueberry Kush,11,,,,
83,Tamarack,Tamarack.jpg,,t,t,f,1,08:56.6,18:14.1,,34,,,Blue God,,
14,HIGHLANDS,Highlands_20g.jpg,Highlands (CBD Critical Mass),,,,,,,,,,,,,
Most clients find this strain to be effective for pain relief. Some clients have used this strain for PTSD as well as pain management. Most clients indicate that this strain allows them to be alert, and use it during daytime due to its lower THC level. Some have also found it helpful with pain and inflammation due to the higher CBD levels.,f,t,f,1,46:01.2,41:22.0,16675_Organigram_Dried_Cannabis_Label_CBD_FA-01.jpg,36,,,CBD Critical Mass,9.5,,,
70,Oasis,Oasis_Blend.jpg,All of your favorite organic strains come together to create a blend that lives its name, a real sativa paradise. Composed of our most popular organic Sativa strains such as Tidal Bore, Rising Tides, Pier 21 and Terra Nova. All of our blends are made from dried flower and come pre-milled for convenience. Oasis Blend can provide patients the energy and pain relief required to get through any busy day. All of our blends come pre-milled for convenience.,t,t,f,1,17:04.5,10:41.7,,33,,
66,WELCOME KIT,medtainer_welcome_kit.jpg,All new clients registered with Organigram receive a welcome kit which includes a copy of Aunt Sandy's cook book and Medtainer!,f,t,f,8,20:25.8,14:43.2,medtainer_welcome_kit.jpg,,,,,,
69,TROPICAL BLEND,Tropical_Blend.jpg,*non-organic* A limited edition hybrid blend with an incredibly sweet aroma reminiscent of citrus, mangoes and pineapple. The primary strains that make up the blend are Jack Herer, Jean Guy, CBD Warlock and Island Sweet Skunk. Pre-milled for convenience, this sativa dominant blend will only be available in 15g increments while supplies last.  ,f,t,f,1,59:35.1,30:19.5,,35,
62,Brave,Brave_Bottle_Shot.jpg,Clients say this is an energizing product, that doesn’t slow them down. The high THC means that clients with anxiety should be cautious. *Jean Guy*,t,t,f,1,34:08.3,04:03.1,,33,,,,
61,Caubvic,Caubvic_Bottle_Shot.jpg,Clients have reported this strain to produce a relaxing effect while providing relieving from stress and pain, headaches and migraines in particular. Some clients prone to depression have also seen great results from this Indica-dominant strain. *Kush*,t,f,f,1,33:58.7,05:20.8,,34,,,,
73,Green Gables,Green_Gables.jpg,Green Gables (Girl Scout Cookies) is a Hybrid Strain known for its ability to provide both an uplifting cerebral effect and full body relaxation.  Many clients have found this strain particularly helpful when battling stress or chronic pain.,,,,,,,,,,,,,
*Non Organic*,,,,,,,,,,,,,,,,
,,,,,,,,,,,,,,,,
 ,t,t,f,1,08:44.3,22:31.8,,35,,,Girl Scout Cookies,,,,,
105,SIMCOE,Simcoe.jpg,,f,t,f,1,06:26.8,25:59.5,16675_Organigram_Dried_Cannabis_Label_Indica_FA-01.jpg,34,,,,,
92,Stanley,Stanley.jpg,Many clients have found this strain provides a deep relaxing effect. It has also shown favorable results treating stress and chronic pain.,,,,,,,,,,,,,
,t,t,f,1,46:57.6,23:12.0,,34,,,Mango,,,,,
7,Purple Violet,Purple_Violet.jpg,Many clients have described this strain as blissful, clear headed and creative. Best suited for daytime use, it has been reported to provide relief from pain and fatigue, some clients have found it useful when battling stress and depression.  *Non organic*,,,,,,,,,,
,t,t,f,1,46:01.2,22:57.5,,33,,,Jack Herer,,,,,
51,MEDTAINER,Med-Tainer.jpg,The medtainer is a water tight, smellproof travel container featuring a built in grinder.,f,t,f,4,46:01.5,11:17.9,,,,,,
95,HALCYON,Halcyon.jpg,,f,t,f,1,07:00.9,00:47.9,16675_Organigram_Dried_Cannabis_Label_Sativa_FA-01.jpg,33,,,Island Honey,10,
98,STRAIN DISCOVERY,Strain_Discovery_No_Background.jpg,,f,t,f,1,26:52.8,38:32.2,,,,,,,
94,AROOSTOOK,,,f,t,f,1,33:30.9,51:36.8,,,,,Purple Kush,,
103,ACADIA,Acadia_20g.jpg,The origins of Acadia date back to the mid-1600s, when a large population of French settlers emigrated to regions today established as the Maritime provinces and Quebec. Today, the richness of Acadian culture is celebrated in the Maritime region through music, cuisine and annual festivities.  ,,,,,,,,,,
,,,,,,,,,,,,,,,,
Acadia is a powerful sativa-dominant strain, reputed by patients to be an optimal tool for combating depression, pain and lethargy. With a very dense, compact bud structure, Acadia offers a tangy, tart aroma with notes of freshly picked field berries. ,,,,,,,,,,,
,f,t,f,1,05:43.3,53:17.7,DRY1004V1_SativaLOW_preview.jpeg,33,,,,10,,,,
107,OGI Hoodie,,,t,t,f,8,33:24.4,12:15.5,,,,,,,
101,-Highlands SD-,,,t,t,f,1,29:14.9,48:43.7,,,,,,,
88,BALEEN,Baleen_20g.jpg,,f,t,f,1,43:33.5,54:21.8,DRY1001V1_CBD.jpg,36,,,CBD Shark,9,
89,ODYSSEY,Odyssey_20g.jpg,Many clients and found this strain provides a relaxing effect. It has shown positive results treating stress, nausea, cramps and pain.,,,,,,,,,,,
,f,t,f,1,43:45.8,20:00.4,16675_Organigram_Dried_Cannabis_Label_CBD_FA-01.jpg,36,,,CBD Yummy,9,,,,
111,OSPREY,Osprey.jpg,Nova Scotia’s provincial bird, the osprey, is a treasured creature in the Atlantic region. One of the most agile hunters in the skies around coastal regions, the osprey is a confident, adaptable bird that evokes a sense of strength and security. ,,,,,,,,,
,,,,,,,,,,,,,,,,
Like the raptor for which it’s named, Organigram’s Osprey is a similarly reliable, strong strain. Otherwise known as Afghani Kush, the plant is known to survive and thrive in less than ideal conditions. With a lineage that’s literally centuries-old, in the cannabis world, Afghani Kush is a survivor. ,,,,,,,,,,,
,,,,,,,,,,,,,,,,
Sought after by patients for its calming, centering properties, Osprey presents a dense bud structure and an earthy, pungent aroma. Patients report it an effective tool to help combat pain, insomnia and anxiety.  ,,,,,,,,,,,,
,f,t,f,1,50:23.5,21:35.9,16675_Organigram_Dried_Cannabis_Label_Indica_FA-01.jpg,34,,,Afghani Kush,10,,,,
99,-Oxford SD-,,,t,t,f,1,28:33.0,49:02.2,,,,,,,
106,BLUEBERRY CHEESECAKE,Blueberry_CC.jpg,One whiff of this Premium Blend, and its name needs little explanation. A recipe derived from our robust Blueberry Kush and Purple X Chemo strains, this pre-milled product packs high THC levels and an aroma that’s like a rich, heaping piece of, you guessed it, blueberry cheesecake. ,,,,,,,,
,,,,,,,,,,,,,,,,
Minty green with hints of violet, this myrcene-rich blend is sought by patients for its relaxing, euphoric properties. Best consumed in the evening hours, Blueberry Cheesecake is further noted as a powerful medicine for pain, tension and PTSD. ,,,,,,,,,,,,
,,,,,,,,,,,,,,,,
Packaged pre-milled to the ideal consistency for even vaporization, Organigram Premium Blends are a convenient, budget-friendly option. Available exclusively in 15-gram bottles.  ,,,,,,,,,,,,,,
,f,t,f,9,20:00.8,56:15.8,16675_Organigram_Dried_Cannabis_Label_Indica_FA-01.jpg,34,,,Premium Blend,7,,,,
100,-Bonavista SD-,,,t,t,f,1,28:59.7,49:10.0,,,,,,,
86,UTILLIAN 721,Utillian_720.jpg,Tough and portable, this unit offers 8 temperature settings and is very user friendly.,,,,,,,,,,,,
,f,f,f,3,15:33.5,36:07.3,,,,,,,,,,
49,PAX 2,PAX_2_Black.jpg,Aluminium construction with an intelligent heating and cooling system, the PAX 2 is both elegant and discreet.,f,t,f,3,46:01.5,43:20.8,,,,,,
91,Rockport,Rockport.jpg,Non Organic - Indica Dominant,t,t,f,1,42:56.1,16:17.9,,34,,,,,
97,Firefly 2,Firefly_2.2.jpg,The Firefly 2 is easy to clean, comes Bluetooth connected and can heat its convection oven in under 5 seconds. Available in black or white.,f,t,f,3,24:22.1,20:32.3,,,,,,
102,WABANAKI,Wabanaki_20g.jpg,Loosely translated as “People of the First Light,” Wabanaki represents a First Nations confederation of five Algonquian-speaking nations near the Eastern seaboard: the Penobscot, Passamaquoddy, Maliseet, Abenaki and Mi’kmaq. The confederacy, established in the mid-late 1600s, played an essential role in establishing Aboriginal rights in North America. ,,,,,,,
,,,,,,,,,,,,,,,,
Wabanaki is a sativa-dominant strain, reported by patients as a clear-headed, creative catalyst. With high levels of pinene, caryophyllene and myrcene, Wabanaki is optimal for boosting energy, boasting earthy, woodsy aromas reminiscent of fresh pine and the forest floor. ,,,,,,,,,,
,f,t,f,1,58:25.8,34:48.4,16675_Organigram_Dried_Cannabis_Label_Sativa_FA-01.jpg,33,,,,10,,,,
68,LOW TIDE,Low_Tide_15g.jpg,The peak of low tide is something of a magic hour on the East Coast. With the water out as far as it goes, low tide is a brief moment of permission to explore the ocean floor. This indica blend (derived from our popular Lighthouse, Highlands and Joggins Fossil strains) pays homage to that daily opportunity to de-stress and unwind. ,,,,,,,,,,,
,,,,,,,,,,,,,,,,
With an earthy, fresh aroma and high levels of balancing myrcene and caryophyllene, patients cite Low Tide as a powerful medicine to help combat both physical and mental stress. Many report Low Tide as an effective tool for combating PTSD, pain and depression, best enjoyed in the evening hours. ,,,,,,,,,,,,
,,,,,,,,,,,,,,,,
Packaged pre-milled to the ideal consistency for even vaporization, Organigram Premium Blends are a convenient, budget-friendly option. Available exclusively in 15-gram bottles.  ,,,,,,,,,,,,,,
,f,t,f,9,18:10.2,56:45.9,16675_Organigram_Dried_Cannabis_Label_Indica_FA-01.jpg,34,,,Premium Blend,7,,,,
72,KUSH BLEND,Kush_Blend.jpg,In the world of cannabis genetics, few varieties are hardier and as naturally resilient than those from the Kush family. Originating from mountainous regions with harsher climates, the Kush plant is revered for its ability to endure and thrive in less-than-ideal conditions. Our Premium Kush Blend offers patients the very best of our most popular plants of the variety: Kush, Purple Kush, Blueberry Kush and Critical Kush. ,,,,,,,,,
,,,,,,,,,,,,,,,,
Deep forest green with occasional hints of lavender, and a peppery, yet earthy aroma, this caryophyllene-rich blend is sought by patients for its traditional Kush characteristics: euphoric, relaxing and calming. Best consumed in the evening hours, our patients cite Kush Blend as an effective option for combating pain, insomnia, PTSD, anxiety and depression.  ,,,,,,,,
,,,,,,,,,,,,,,,,
Packaged pre-milled to the ideal consistency for even vaporization, Organigram Premium Blends are a convenient, budget-friendly option. Available exclusively in 15-gram bottles.  ,,,,,,,,,,,,,,
,f,t,f,9,59:50.0,07:31.3,16675_Organigram_Dried_Cannabis_Label_Indica_FA-01.jpg,34,,,Premium Blend,7,,,,
78,POKIOK,Pokiok.jpg,In lush, beautiful New Brunswick, a walk in the woods is always a stone’s throw away. But if you walk just far enough along the serene Saint John River, you’ll hit an impressive, lesser-seen piece of nature: Pokiok Falls. Like the picturesque waterfall for which its named, Pokiok is sought by patients for its naturally calming, stress-relieving properties. ,,,,,,,
,,,,,,,,,,,,,,,,
With a vibrant forest green hue, violet highlights, and a lightly floral, earthy aroma, Pokiok comes equipped with notable levels of the cannabinoid CBG, believed to reduce inflammation and fight bacteria. Patients report Pokiok as an effective medicine for combating pain, restlessness and anxiety. ,,,,,,,,,,
,f,t,f,1,04:22.1,25:07.4,16675_Organigram_Dried_Cannabis_Label_Indica_FA-01.jpg,34,,,Purple x Chemo,8,,,,
93,ORWELL,Orwell.jpg,With a lush bud structure, mossy hue, substantial crystal coverage and an aroma that’s been described as spicy, earthy and rich, Orwell is a curious strain with moderate THC levels. ,,,,,,,,,
,,,,,,,,,,,,,,,,
And though it may grow like an indica, with high concentrations of limonene, Orwell boasts some notable energetic and clarifying properties. Equally high in calming caryophyllene, Orwell offers benefit to patients seeking relief and relaxation and is reported to be an effective medicine for combatting stress, depression and insomnia. ,f,t,f,1,47:07.1,21:07.3,16675_Organigram_Dried_Cannabis_Label_Indica_FA-01.jpg,34,,,Alien Dawg,8
80,TORBAY,Torbay_20g.jpg,The origins of this strain go east – way east. Named for the quaint Newfoundland community located a stone’s throw from the easternmost edge of Canada, Torbay pays homage to life on the far right of the map.  ,,,,,,,,,,,,
,,,,,,,,,,,,,,,,
Torbay is a robust indica-dominant flower, heralded by patients for its ability to calm restless nerves and relieve pain and discomfort. With a lush bud structure and a vibrant jade profile, Torbay boasts high levels of myrcene and pinene. Those relaxing, fresh, earthy notes make it accommodating for both daytime and evening enjoyment. ,,,,,,,,,,,,
,f,t,f,1,02:19.2,20:45.3,16675_Organigram_Dried_Cannabis_Label_Indica_FA-01.jpg,34,,,Critical Kush,9,,,,
12,JOGGINS FOSSIL,Joggins_Bottle_Shot.jpg,Every day on the western edge of Nova Scotia, the outflow of the world’s highest tide leaves a treasure trove on the beach in its wake. One of the longest-standing strains in the Organigram catalogue, Joggins Fossil pays homage to this world-renowned site of archaeological exploration. ,,,,,,,,,,,
,,,,,,,,,,,,,,,,
With vibrant hunter green buds and significant crystal coverage, this pinene-rich strain offers a fresh, woodsy aroma and an energizing, yet balancing effect. Patients report it also bears traditional Kush family characteristics: euphoric, relaxing and calming. Best consumed in the evening hours, our patients report Joggins Fossil is an effective option for combating pain, insomnia, PTSD, anxiety and depression.  ,,,,,,,,
,f,t,f,1,46:01.2,06:06.0,16675_Organigram_Dried_Cannabis_Label_Indica_FA-01.jpg,34,,,Kush,,,,,
82,HUNTER'S CORNER,Hunter_S_Corner_20g.jpg,Warm patios, people watching and music floating through the air: hallmarks of idyllic summer nights in Canada’s smallest province. Just like the best spot for kicking back in Charlottetown’s core, Hunter’s Corner is heralded by patients for its relaxing, calming properties.,,,,,,,,,,
,,,,,,,,,,,,,,,,
This indica-dominant flower boasts a rich, distinct aroma and an extremely tight, dense bud structure. With traditionally high THC values, this myrcene-rich strain is reputed by patients as a powerful tool for combating pain and depression, best enjoyed in the evening hours. ,,,,,,,,,,,,
,f,t,f,1,06:43.6,02:43.1,16675_Organigram_Dried_Cannabis_Label_Indica_FA-01.jpg,34,,,Hash Plant,9,,,,
109,SUGAR SHACK,Sugar_Shack_15g.jpg,Picture this: the sweet smell of boiling maple sugar and smoke from a warm wood stove. The combined aromas cut through the crisp spring air, wafting from a log cabin surrounded by maple trees, each tapped by a silver sap bucket. ,,,,,,,,,,,
,,,,,,,,,,,,,,,,
When the sap starts to flow from the maples, it signals the end of hibernation in Eastern Canada. A day trip to the sugar shack for pure maple syrup and endless stacks of pancakes make surviving a long, cold winter all worth it. ,,,,,,,,,,,,,,
,,,,,,,,,,,,,,,,
Organigram’s Sugar Shack Premium Blend pays homage to that quintessentially Canadian experience. Made of strains from our Canada 150 family of products, including the sativa-dominant Wabanaki and Acadia, and the indica-dominant Union Jack, Sugar Shack is an uplifting, energizing blend that offers a woodsy, earthy aroma with a hint of sweetness. With moderate THC levels and properties of both indica and sativa flowers, patients report it as an effective daytime blend, with balanced uplifting and calming properties. ,,,,,,,,,
,,,,,,,,,,,,,,,,
Packaged pre-milled to the ideal consistency for even vaporization, Organigram Premium Blends are a convenient, budget-friendly option. Available exclusively in 15-gram bottles.  ,,,,,,,,,,,,,,
,f,t,f,9,17:11.3,43:04.6,16675_Organigram_Dried_Cannabis_Label_Sativa_FA-01.jpg,33,,,Premium blend,7,,,,
108,HYDROLOGY 9,Cloudius_9.jpg,The first water filtration-integrated vaporizer on the market, the Hydrology 9 stands in a class by itself. With a future-forward aesthetic (including multicolour light show and built-in stir tool) and crafted from spacecraft-grade aluminum alloy, the Hydrology 9 is an enviable, standout showpiece that's both portable and reliable. Delivering a cool, smooth vapour, this unit offers patients a unique and refreshing experience. ,f,f,f,3,58:14.0,05:31.1,,
112,STAR GAZER,Star_Gazer_15g.jpg,There’s something to be said for living in a more sparsely populated area; it’s a little bit quieter, the air seems fresher and at night, it’s a lot easier to see the stars. ,,,,,,,,,,,
,,,,,,,,,,,,,,,,
Our Star Gazer Premium Blend was developed with that same spirit in mind, an homage to breathing deeper, taking time to wonder and seeing things a little more clearly.,,,,,,,,,,,,,,
,,,,,,,,,,,,,,,,
Made from a few of our favourite celestial flowers, including Ursa Major and Ursa Minor, Star Gazer is lauded by patients for its clarifying, calming properties. With a more understated aroma and a mossy green hue, it’s an earthy blend that’s known as an effective tool to combat pain, anxiety and stress. ,,,,,,,,,,,
,,,,,,,,,,,,,,,,
Packaged pre-milled to the ideal consistency for even vaporization, Organigram Premium Blends are a convenient, budget-friendly option. Available exclusively in 15-gram bottles.  ,,,,,,,,,,,,,,
,f,t,f,9,57:50.9,26:40.2,16675_Organigram_Dried_Cannabis_Label_Indica_FA-01.jpg,34,,,,7,,,,
115,EQUINOX,Equinox_15g.jpg,,f,t,f,9,15:00.4,13:21.8,16675_Organigram_Dried_Cannabis_Label_CBD_FA-01.jpg,36,,,Premium Blend,7,
110,EASY BREEZE,Easy_Breeze.jpg,The first mariners to navigate the Atlantic adopted a curious system for describing nautical weather patterns. When winds were faint, light and favourable for slow sailing, the boat was coaxed across the water by an ‘easy breeze.’ ,,,,,,,,,,,
,,,,,,,,,,,,,,,,
This sativa-dominant flower has a unique aroma profile and moderate-sized buds laced with vermillion pistils. Patients report Easy Breeze as an effective daytime strain, with a smooth onset and uplifting, clarifying properties. Some patients have reported Easy Breeze an effective tool for reducing symptoms associated with depression, anxiety, stress and chronic pain conditions.   ,,,,,,,,,,,,
,f,t,f,1,50:09.9,57:55.3,16675_Organigram_Dried_Cannabis_Label_Sativa_FA-01.jpg,33,,,Time Warp,8,,,,
147,ACADIA SD,Acadia_20g.jpg,,f,t,f,1,27:08.5,03:56.2,DRY1004V1_SativaLOW.jpg,33,,,Strain Discovery,8,
146,BALEEN SD,Baleen_20g.jpg,,f,t,f,1,19:25.1,05:01.5,DRY1001V1_CBDLOW.jpg,36,,,Strain Discovery,8,
44,ROSSIGNOL,Rossignol.jpg,The rugged shores of Nova Scotia’s Rossignol Lake are, for the most part, a wild and undisturbed. The massive body of fresh water is remote, unpredictable, and offers a distinct invigoration to those who seek to explore it. ,,,,,,,,,
,,,,,,,,,,,,,,,,
Organigram’s Rossignol Cannabis Oil is a sativa-dominant, THC-rich edible oil sought by patients suffering from chronic conditions, including fatigue, depression and pain. Patients seeking daytime relief often turn to Rossignol as their go-to medicine for the waking hours; many report Rossignol as ideal for staying active and pain-free, while staving off fatigue. ,,,,,,,,,,,,
,,,,,,,,,,,,,,,,
Organigram oils are an inhalation-free, edible alternative for consuming medical cannabis. Prepared in a sunflower oil base, Organigram oils can be taken in a number of ways: direct oral ingestion, mixed into food or drinks or added as a substitute in tasty recipes and baked goods. Patients who suffer from respiratory afflictions report edible oils as an ideal alternative for taking their medication. With longer-lasting effects and a longer onset time (when compared to combustion or vaporization), edible oils are best consumed on a metered dosage schedule. Dosing is simple, precise and effective.  ,,,,,,,,,,,
,,,,,,,,,,,,,,,,
Each bottle of Organigram Cannabis Oil is equivalent to 10 grams towards a patient’s monthly prescription limit. ,,,,,,,,,,,,,,,,
,f,t,f,2,46:01.5,21:44.3,OIL0004V1_SATIVA.jpg,33,,,,,,,,
75,URSA MAJOR,Ursa_Major.jpg,In northern skies, Ursa Major may be the most recognizable and easy-to-find constellation of them all. Loosely translated in Latin as ‘Great Bear,’ stars within the Ursa Major form one of the most recognizable shapes in the sky, the Big Dipper.   ,,,,,,,,,,
,,,,,,,,,,,,,,,,
Ursa Major is a sativa-dominant flower, though many patients say it carries a number of properties traditionally associated with indica strains. It’s equal-parts uplifting and calming, and has been reported by patients as a helpful tool to combat stress, anxiety, PTSD and depression without causing anxiety or resulting in fatigue. ,,,,,,,,,,,,
,f,t,f,1,47:05.0,31:58.6,,33,,,,9,,,,
114,SHUBIE,Shubie_copy.jpg,The Shubenacadie River, or ‘Shubie’ is a magnetic artery in Nova Scotia. With jaw-dropping tidal swells, witnessing the rush of water down the cliff-lined canal is an invigorative, restorative experience. ,,,,,,,,,,
,,,,,,,,,,,,,,,,
Organigram’s Shubie Cannabis Oil is a CBD-rich edible oil sought by patients suffering from chronic conditions, especially those in which pain is a dominant symptom. An effective tool to address pain, Shubie is a go-to for patients seeking relief from physical symptoms without the cerebral effects felt after consuming products with notable concentrations of THC.  ,,,,,,,,,,,,,,
,,,,,,,,,,,,,,,,
Organigram oils are an inhalation-free, edible alternative for consuming medical cannabis. Prepared in a sunflower oil base, Organigram oils can be taken in a number of ways: direct oral ingestion, mixed into food or drinks or added as a substitute in tasty recipes and baked goods. Patients who suffer from respiratory afflictions report edible oils as an ideal alternative for taking their medication. With longer-lasting effects and a longer onset time (when compared to combustion or vaporization), edible oils are best consumed on a metered dosage schedule. Dosing is simple, precise and effective.  ,,,,,,,,,,,
,,,,,,,,,,,,,,,,
Each bottle of Organigram Cannabis Oil is equivalent to 10 grams towards a patient’s monthly prescription limit. ,f,t,f,2,08:06.1,54:36.3,OIL0001V1_CBD.jpg,36,,,,,,,,
135,REPLACEMENT SYRINGE (1ml),Replacement_syringe.jpg,,f,t,f,8,24:19.6,12:09.6,,,,,,,
128,WABANAKI mini,Wabanaki_mini,,f,t,f,1,30:51.1,07:42.9,16675_Organigram_Dried_Cannabis_Label_Sativa_FA-01.jpg,33,,,Wabanaki,8,
118,UTILLIAN 420,Utillian_420.jpg,Compact and affordable, this handheld unit features a glass mouthpiece and an LED display with 4 temperature settings.,f,f,f,3,00:48.5,33:22.4,,,,,,
117,Lift Magazine (FREE),Lift_Magazine_V1.jpg,Want to keep up on the latest cannabis industry news? Check out LIFT Magazine, a quarterly publication from Canada's cannabis community that chronicles evolutions in the industry, cannabis laws and culture. ,f,f,f,8,11:57.0,51:41.0,,,,,
137,HUMIDITY PACK,Humidity_Pack.jpg,,f,t,f,8,37:28.5,45:45.0,,,,,,,
131,BONAVISTA mini,Bonavista_mini_10g.jpg,,f,t,f,1,17:11.1,56:53.0,DRY1004V1_SATIVA.jpg,33,,,Headband,8,
127,KANATA mini,Kanata_mini_10g.jpg,,f,t,f,1,30:02.9,06:42.6,16675_Organigram_Dried_Cannabis_Label_Indica_FA-01.jpg,34,,,Kanata,8,
79,PASADENA,Pasadena.jpg,Many clients have indicated that this strain is uplifting, and makes them feel focused and creative. Some clients battling stress and depression have found this helpful.,f,t,f,1,59:25.9,23:55.2,16675_Organigram_Dried_Cannabis_Label_Sativa_FA-01.jpg,33,,,Critical Kali Mist,10.5
77,BONAVISTA,Bonavista_20g.jpg,When John Cabot first laid eyes on North America in 1497, the first words out of his mouth were “Buono vista!” or, “Happy sight.” This flower pays homage to the aptly-named shores of Bonavista, Newfoundland, peppered with rocky beaches and dense treeline. ,,,,,,,,,
,,,,,,,,,,,,,,,,
This sativa-dominant hybrid is revered by patients for its dual effects. Like a walk on the idyllic shores for which it’s named, Bonavista is equal parts uplifting and calming. With a rich forest green hue and svelte bud structure, the strain boasts high concentrations of energizing limonene and calming caryophyllene. But for its unassuming aesthetic, Bonavista is a strain that ought not be underestimated. Peppery and fresh with a powerful aroma profile, patients report Bonavista as the ideal tool for combating pain, depression and anxiety. ,,,,,,,,,,,
,f,t,f,1,00:45.5,56:34.5,DRY1004V1_SATIVA.jpg,33,,,Headband,11,,,,
113,HARVEST,Harvest_15g.jpg,Autumn is a time of celebration. The landscape changes to a brilliant crimson and orange, the air turns crisp and the earth returns a rich harvest from seeds sown in the summer. It’s a time for wool socks, eating too much and to relish in a change of the season. ,,,,,,,,,,,
,,,,,,,,,,,,,,,,
Organigram’s Harvest Premium Blend captures that essence of all that’s good about fall. Made up of three of our most popular, lush flowers (Wabanaki, Time Warp and Hash Plant), this sativa-dominant hybrid blend is spicy, sweet and earthy. With a balance that’s energizing, uplifting, yet calming, Harvest is sought by patients battling PTSD, depression and pain. ,,,,,,,,
,,,,,,,,,,,,,,,,
Packaged pre-milled to the ideal consistency for even vaporization, Organigram Premium Blends are a convenient, budget-friendly option. Available exclusively in 15-gram bottles.  ,,,,,,,,,,,,,,
,f,t,f,9,03:12.5,59:00.8,16675_Organigram_Dried_Cannabis_Label_Sativa_FA-01.jpg,33,,,Premium Blend,5,,,,
138,OGI WINTER JACKET (Men's Green),Green_Winter_Jacket.jpg,,f,t,f,8,43:53.2,48:52.6,,,,,,,
130,ACADIA mini,Acadia_mini_10g.jpg,,f,t,f,1,09:58.8,01:44.5,DRY1004V1_SATIVA.jpg,33,,,Acadia,8,
140,OGI WINTER JACKET (women's grey),Grey_Winter_Jacket.jpg,,f,t,f,8,45:31.8,49:23.2,,,,,,,
136,EDISON #5,Edison__5_no_background.jpg,,f,t,f,10,54:47.9,58:30.6,DRY1005V1_EDISON.jpg,36,,,CBD Shark +,15,
132,OGI MEN'S T-SHIRT,Men_s_T-Shirt.jpg,,f,t,f,8,17:43.1,42:38.1,,,,,,,
134,OGI BEANIE,Beanies.jpg,,f,t,f,8,20:07.4,07:00.1,,,,,,,
145,KANATA SD,Kanata_20g.jpg,,f,t,f,1,09:57.7,05:21.4,DRY1003V1_INDICALOW.jpg,34,,,Strain Discovery,8,
116,OGI HOODIE,Hoodie_V2.jpg,Bundle up in this ultra-soft, ultra-durable heather grey hoodie. Featuring the Organigram logo and a classic white drawstring hood, this sweatshirt will become both an outerwear and loungewear wardrobe staple in your closet. ,,,,,,,,,,,
,,,,,,,,,,,,,,,,
Machine-washable. Poly-cotton blend. Sustainably sourced. ,,,,,,,,,,,,,,,,
,,,,,,,,,,,,,,,,
,f,t,f,8,30:35.7,10:34.4,,,,,,,,,,
139,OGI WINTER JACKET (women's green),Green_Winter_Jacket.jpg,,f,t,f,8,44:59.0,49:10.5,,,,,,,
129,HUNTER'S CORNER mini,Hunter_s_Corner_mini_10g.jpg,,f,t,f,1,31:21.1,04:41.6,16675_Organigram_Dried_Cannabis_Label_Indica_FA-01.jpg,34,,,Hash Plant ,8,
76,URSA MINOR,Ursa_Minor.jpg,While this constellation may be the smaller of the pair, it burns brightest. The Ursa Minor, or ‘Little Bear,’ contains one of the brightest stars in the night sky – Polaris, or the North Star. ,,,,,,,,,
,,,,,,,,,,,,,,,,
Ursa Minor is a sativa-dominant flower, though many patients say it carries a number of properties traditionally associated with indica strains. It’s equal-parts uplifting and calming, and has been reported by patients as a helpful tool to combat stress, anxiety, PTSD and depression without causing anxiety or resulting in fatigue. ,,,,,,,,,,,,
,f,t,f,1,50:13.9,32:16.0,,33,,,,9,,,,
126,TIDAL BORE mini,Tidal_Bore_mini.jpg,,f,t,f,1,28:35.9,03:23.2,16675_Organigram_Dried_Cannabis_Label_Sativa_FA-01.jpg,33,,,R2,8,
45,ZEUS SMITE,Zeus_Smite.jpg,A compact vaporizer that offers portability, convenience and extreme discretion.,f,f,f,3,46:01.5,23:41.5,,,,,,
133,OGI WOMEN'S T-SHIRT,Women_s_T-Shirt.jpg,,f,t,f,8,17:55.7,43:36.2,,,,,,,
43,BANOOK,Banook.jpg,Loosely translated, ‘Banook’ means, ‘first lake.’ First navigated and then named by the Mi’kmaq people, the body of water that lies in the middle of Dartmouth, Nova Scotia, is a gathering place, and a beacon for relaxation and tranquility. ,,,,,,,
,,,,,,,,,,,,,,,,
Organigram’s Banook Cannabis Oil is an indica-dominant, THC-rich edible oil sought by patients suffering from stress, anxiety, PTSD and pain. Patients report Banook is best consumed at night.,,,,,,,,,,,,,
,,,,,,,,,,,,,,,,
Organigram oils are an inhalation-free, edible alternative for consuming medical cannabis. Prepared in a sunflower oil base, Organigram oils can be taken in a number of ways: direct oral ingestion, mixed into food or drinks or added as a substitute in tasty recipes and baked goods. Patients who suffer from respiratory afflictions report edible oils as an ideal alternative for taking their medication. With longer-lasting effects and a longer onset time (when compared to combustion or vaporization), edible oils are best consumed on a metered dosage schedule. Dosing is simple, precise and effective.  ,,,,,,,,,,,
,,,,,,,,,,,,,,,,
Each bottle of Organigram Cannabis Oil is equivalent to 10 grams towards a patient’s monthly prescription limit. ,,,,,,,,,,,,,,,,
,f,t,f,2,46:01.4,20:49.0,OIL0003V1_INDICA.jpg,34,,,,,,,,
41,UTOPIA,Utopia.jpg,As its name suggests, New Brunswick’s Utopia Lake is something of a haven. With clear, warm water, teeming with small fish and surrounded by mixed Acadian forest, Utopia is a destination for relief and relaxation. ,,,,,,,,,
,,,,,,,,,,,,,,,,
Organigram’s Utopia Cannabis Oil is a balanced CBD-rich and THC-rich edible oil sought by patients suffering from chronic conditions, especially those in which pain is a dominant symptom. Because Utopia offers an equal balance of THC and CBD, patients seek Utopia for its therapeutic and cerebral properties. An effective tool to address pain, Utopia is also reported to be effective in combating stress, anxiety, PTSD and depression.,,,,,,,,,,,
,,,,,,,,,,,,,,,,
Organigram oils are an inhalation-free, edible alternative for consuming medical cannabis. Prepared in a sunflower oil base, Organigram oils can be taken in a number of ways: direct oral ingestion, mixed into food or drinks or added as a substitute in tasty recipes and baked goods. Patients who suffer from respiratory afflictions report edible oils as an ideal alternative for taking their medication. With longer-lasting effects and a longer onset time (when compared to combustion or vaporization), edible oils are best consumed on a metered dosage schedule. Dosing is simple, precise and effective.  ,,,,,,,,,,,
,,,,,,,,,,,,,,,,
Each bottle of Organigram Cannabis Oil is equivalent to 10 grams towards a patient’s monthly prescription limit. ,,,,,,,,,,,,,,,,
,f,t,f,2,46:01.4,40:07.4,OIL0001V1_CBD.jpg,36,,,,,,,,
96,SOLSTICE,Solstice_15g.jpg,Occurring twice annually, the solstice is a pivotal time. Signifying the transition from spring to summer and fall to winter, the solstice marks days on the calendar when the sun is both at its highest and lowest points in the sky.   ,,,,,,,,,,,
,,,,,,,,,,,,,,,,
This pre-milled product was created to offer patients a high-CBD dried product. With higher concentrations of calming myrcene, patients report Solstice blend as a relaxing, centering strain that’s ideal for nighttime pain relief.  ,,,,,,,,,,,,,,
,,,,,,,,,,,,,,,,
Packaged pre-milled to the ideal consistency for even vaporization, Organigram Premium Blends are a convenient, budget-friendly option. Available exclusively in 15-gram bottles. ,,,,,,,,,,,,,,
,f,t,f,9,58:38.5,26:22.1,16675_Organigram_Dried_Cannabis_Label_CBD_FA-01.jpg,36,,,Premium Blend,7,,,,
90,Beaumont,Beaumont.jpg,Many clients have found that this strain provides an uplifting and energetic effect, therefor is better suited for daytime use. Clients battling stress or depression have seen positive results while using this strain.,,,,,,,,,,,,
,t,t,f,1,32:17.1,22:09.5,,33,,,Jesus OG,,,,,
120,COASTAL BLEND,Coastal_Blend.jpg,There’s something about life along the coast. Whether it’s the smell of salt in the air, or the hypnotic rhythm of the tide, there’s a certain restorative energy that radiates from the shore. ,,,,,,,,,,,
,,,,,,,,,,,,,,,,
Organigram’s Coastal Blend was developed with that invigorative experience in mind. Fresh and fragrant, this blend radiates with a vibrant emerald and honey undertones. Crafted from two of our most popular sativa strains, Halcyon and Wabanaki, Coastal Blend is reported by patients as an energizing, uplifting tool to combat stress, lethargy and depression. ,,,,,,,,,,,
,,,,,,,,,,,,,,,,
Packaged pre-milled to the ideal consistency for even vaporization, Organigram Premium Blends are a convenient, budget-friendly option. Available exclusively in 15-gram bottles.  ,f,t,f,9,25:25.3,57:12.0,16675_Organigram_Dried_Cannabis_Label_Sativa_FA-01.jpg,33,,,,7,,
104,KANATA,Kanata_20g.jpg,Drawing from French, British and Aboriginal influences, the name ‘Canada’ itself is representative of all the nation’s founding peoples. Derived from the Huron-Iroquois word ‘kanata,’ (translated as ‘village’ or ‘settlement’) European explorer Jacques Cartier first referred to the region around modern-day Quebec City as ‘Canada’ around 1535. The name was adopted in various applications through the colonies, and eventually, Confederation gave birth to a new nation in 1867, dubbed Canada. ,,,,,,,
,,,,,,,,,,,,,,,,
Kanata is a bold indica-dominant flower, lauded by patients for its calming, euphoric properties that help relax the body and ease the mind. Like a bouquet of fresh roses with notes of candied apples and a distinct crimson hue, Kanata offers a fresh floral fragrance and subtly sweet flavour. ,,,,,,,,,,,,,
,f,t,f,1,06:19.8,06:26.3,DRY1003V1_INDICA.jpg,34,,,,11,,,,
119,MIGHTY,Mighty.jpg,From the makers of the iconic Volcano vaporizer comes the Mighty, a dual convection-conduction handheld vaporizer that comes equipped with a cooling unit to provide a smooth, cool vapor. With vibration alert, digital display, an extra-long life battery and a rugged, durable design, the Mighty is a handheld of the highest possible standard. ,f,t,f,3,26:08.2,20:23.8,
143,TORBAY mini,Torbay_mini.jpg,,f,t,f,1,42:19.3,04:51.3,DRY1003V1_INDICA.jpg,34,,,Critical Kush,8,
