"","id","name","description","unit_price","sale_price","unit_grams","archived","available","hidden","product_id","created_at","updated_at","allow_backorder","charge_tax","file","label_image","net_volume","net_weight","default_thc","default_cbd","default_thca","default_cbda","max_per_order","meta_attributes","migrated_id","capsule_weight","capsule_volume","capsule_mg_thc_potential","capsule_mg_cbd_potential","capsule_mg_thc_actual","capsule_mg_cbd_actual","capsules_per_bottle","shipment_weight"
"1",187,"15g bottle",NA,10500,NA,15,FALSE,TRUE,FALSE,69,"2016-10-19 14:09:33","2016-12-12 00:32:48",FALSE,TRUE,NA,"",NA,15,NA,NA,NA,NA,NA,NA,"",NA,NA,NA,NA,NA,NA,NA,0
"2",130,"10g Bottle",NA,11000,NA,10,FALSE,TRUE,FALSE,40,"2016-09-22 05:46:04","2017-01-13 16:28:45",FALSE,TRUE,NA,"",NA,10,NA,NA,NA,NA,NA,NA,"3098-10",NA,NA,NA,NA,NA,NA,NA,0
"3",200,"15g Bottle",NA,13500,NA,15,FALSE,TRUE,FALSE,75,"2017-01-05 20:48:08","2017-08-16 19:04:11",FALSE,TRUE,NA,"",NA,15,NA,NA,NA,NA,NA,NA,"",NA,NA,NA,NA,NA,NA,NA,0
"4",201,"20g Bottle",NA,18000,NA,20,FALSE,TRUE,FALSE,75,"2017-01-05 20:48:12","2017-08-16 19:05:02",FALSE,TRUE,NA,"",NA,20,NA,NA,NA,NA,NA,NA,"",NA,NA,NA,NA,NA,NA,NA,0
"5",153,"5g Bottle",NA,0,NA,5,FALSE,TRUE,FALSE,3,"2016-09-22 05:46:04","2016-09-22 05:46:04",FALSE,TRUE,NA,"",NA,5,NA,NA,NA,NA,3,NA,"3011-5",NA,NA,NA,NA,NA,NA,NA,0
"6",154,"5g Bottle",NA,5000,NA,5,FALSE,TRUE,FALSE,24,"2016-09-22 05:46:04","2016-09-22 06:39:56",FALSE,TRUE,NA,"",NA,5,NA,NA,NA,NA,3,NA,"3054-5",NA,NA,NA,NA,NA,NA,NA,0
"7",149,"5g Bottle",NA,5500,NA,5,FALSE,TRUE,FALSE,40,"2016-09-22 05:46:04","2016-09-22 06:43:55",FALSE,TRUE,NA,"",NA,5,NA,NA,NA,NA,3,NA,"3104-5",NA,NA,NA,NA,NA,NA,NA,0
"8",147,"20g Bottle",NA,20000,NA,20,FALSE,TRUE,FALSE,24,"2016-09-22 05:46:04","2016-09-22 06:39:08",FALSE,TRUE,NA,"",NA,20,NA,NA,NA,NA,3,NA,"3054-20",NA,NA,NA,NA,NA,NA,NA,0
"9",131,"15g Bottle",NA,16500,NA,15,FALSE,TRUE,FALSE,40,"2016-09-22 05:46:04","2017-02-01 12:37:15",FALSE,TRUE,NA,"",NA,15,NA,NA,NA,NA,NA,NA,"3098-15",NA,NA,NA,NA,NA,NA,NA,0
"10",151,"5g Bottle",NA,4625,NA,5,FALSE,TRUE,FALSE,6,"2016-09-22 05:46:04","2016-09-22 16:31:59",FALSE,TRUE,NA,"",NA,5,NA,NA,NA,NA,3,NA,"3010-5",NA,NA,NA,NA,NA,NA,NA,0
"11",199,"10g Bottle",NA,9000,NA,10,FALSE,TRUE,FALSE,75,"2017-01-05 20:48:01","2017-08-16 19:03:49",FALSE,TRUE,NA,"",NA,10,NA,NA,NA,NA,NA,NA,"",NA,NA,NA,NA,NA,NA,NA,0
"12",157,"20g Bottle",NA,20000,NA,20,FALSE,TRUE,FALSE,12,"2016-09-26 19:00:00","2016-12-16 15:29:52",FALSE,TRUE,NA,"",NA,20,NA,NA,NA,NA,NA,NA,"",NA,NA,NA,NA,NA,NA,NA,0
"13",20,"10g Bottle",NA,9250,NA,10,FALSE,TRUE,FALSE,6,"2016-09-22 05:46:03","2016-12-16 17:35:58",FALSE,TRUE,NA,"",NA,10,NA,NA,NA,NA,NA,NA,"3010-10",NA,NA,NA,NA,NA,NA,NA,0
"14",49,"10g Bottle",NA,9500,NA,10,FALSE,TRUE,FALSE,14,"2016-09-22 05:46:04","2016-10-17 18:36:36",FALSE,TRUE,NA,"",NA,10,NA,NA,NA,NA,3,NA,"3024-10",NA,NA,NA,NA,NA,NA,NA,0
"15",234,"5g Bottle",NA,5500,NA,5,FALSE,TRUE,FALSE,84,"2017-01-10 16:15:37","2017-04-12 13:17:58",FALSE,TRUE,NA,"",NA,5,NA,NA,NA,NA,NA,NA,"",NA,NA,NA,NA,NA,NA,NA,0
"16",148,"5g Bottle",NA,4750,NA,5,FALSE,TRUE,FALSE,14,"2016-09-22 05:46:04","2016-10-17 19:55:06",FALSE,TRUE,NA,"",NA,5,NA,NA,NA,NA,NA,NA,"3045-5",NA,NA,NA,NA,NA,NA,NA,0
"17",145,"Puffer",NA,0,NA,0,FALSE,FALSE,TRUE,53,"2016-09-22 05:46:04","2016-09-29 17:25:28",FALSE,TRUE,NA,"",NA,0,NA,NA,NA,NA,3,NA,"4000-1",NA,NA,NA,NA,NA,NA,NA,0
"18",195,"20g Bottle",NA,21000,NA,20,FALSE,TRUE,FALSE,73,"2016-12-23 15:12:09","2016-12-23 15:42:40",FALSE,TRUE,NA,"",NA,20,13.8,0,NA,NA,NA,NA,"",NA,NA,NA,NA,NA,NA,NA,0
"19",192,"5g Bottle",NA,5250,NA,5,FALSE,TRUE,FALSE,73,"2016-12-23 15:11:28","2016-12-23 15:42:59",FALSE,TRUE,NA,"",NA,5,13.8,0,NA,NA,NA,NA,"",NA,NA,NA,NA,NA,NA,NA,0
"20",146,"MEDTAINER",NA,1500,NA,0,FALSE,FALSE,FALSE,54,"2016-09-22 05:46:04","2016-09-29 18:19:27",FALSE,TRUE,NA,"",NA,0,NA,NA,NA,NA,3,NA,"4020",NA,NA,NA,NA,NA,NA,NA,0
